TRIGGERPOINT,DATE,n,MEDIAN
TRACK_BLOCK_EDIT_BY_USER,30/11/18,39,184.0
TRACK_BLOCK_EDIT_BY_USER,29/11/18,75,184.0
TRACK_BLOCK_EDIT_BY_USER,28/11/18,58,184.0
TRACK_BLOCK_EDIT_BY_USER,27/11/18,49,184.0
TRACK_BLOCK_EDIT_BY_USER,26/11/18,119,184.0
TRACK_BLOCK_EDIT_BY_USER,25/11/18,36,184.0
TRACK_BLOCK_EDIT_BY_USER,24/11/18,32,184.0
TRACK_BLOCK_EDIT_BY_USER,23/11/18,75,184.0
TRACK_BLOCK_EDIT_BY_USER,22/11/18,37,184.0
TRACK_BLOCK_EDIT_BY_USER,21/11/18,87,184.0
TRACK_BLOCK_EDIT_BY_USER,20/11/18,100,184.0
TRACK_BLOCK_EDIT_BY_USER,16/12/18,22,184.0
TRACK_BLOCK_EDIT_BY_USER,15/12/18,29,184.0
TRACK_BLOCK_EDIT_BY_USER,14/12/18,30,184.0
TRACK_BLOCK_EDIT_BY_USER,13/12/18,34,184.0
TRACK_BLOCK_EDIT_BY_USER,12/12/18,60,184.0
TRACK_BLOCK_EDIT_BY_USER,11/12/18,69,184.0
TRACK_BLOCK_EDIT_BY_USER,10/12/18,35,184.0
TRACK_BLOCK_EDIT_BY_USER,09/12/18,31,184.0
TRACK_BLOCK_EDIT_BY_USER,08/12/18,37,184.0
TRACK_BLOCK_EDIT_BY_USER,07/12/18,31,184.0
TRACK_BLOCK_EDIT_BY_USER,06/12/18,36,184.0
TRACK_BLOCK_EDIT_BY_USER,05/12/18,20,184.0
TRACK_BLOCK_EDIT_BY_USER,04/12/18,32,184.0
TRACK_BLOCK_EDIT_BY_USER,03/12/18,28,184.0
TRACK_BLOCK_EDIT_BY_USER,02/12/18,54,184.0
TRACK_BLOCK_EDIT_BY_USER,01/12/18,36,184.0
TRAIN_TIE_CREATE_BY_USER,30/11/18,27,175.0
TRAIN_TIE_CREATE_BY_USER,29/11/18,24,175.0
TRAIN_TIE_CREATE_BY_USER,28/11/18,16,175.0
TRAIN_TIE_CREATE_BY_USER,27/11/18,37,175.0
TRAIN_TIE_CREATE_BY_USER,26/11/18,35,175.0
TRAIN_TIE_CREATE_BY_USER,25/11/18,19,175.0
TRAIN_TIE_CREATE_BY_USER,24/11/18,16,175.0
TRAIN_TIE_CREATE_BY_USER,23/11/18,23,175.0
TRAIN_TIE_CREATE_BY_USER,22/11/18,10,175.0
TRAIN_TIE_CREATE_BY_USER,21/11/18,16,175.0
TRAIN_TIE_CREATE_BY_USER,20/11/18,7,175.0
TRAIN_TIE_CREATE_BY_USER,16/12/18,9,175.0
TRAIN_TIE_CREATE_BY_USER,15/12/18,11,175.0
TRAIN_TIE_CREATE_BY_USER,14/12/18,14,175.0
TRAIN_TIE_CREATE_BY_USER,13/12/18,56,175.0
TRAIN_TIE_CREATE_BY_USER,12/12/18,41,175.0
TRAIN_TIE_CREATE_BY_USER,11/12/18,35,175.0
TRAIN_TIE_CREATE_BY_USER,10/12/18,31,175.0
TRAIN_TIE_CREATE_BY_USER,09/12/18,59,175.0
TRAIN_TIE_CREATE_BY_USER,08/12/18,20,175.0
TRAIN_TIE_CREATE_BY_USER,07/12/18,22,175.0
TRAIN_TIE_CREATE_BY_USER,06/12/18,11,175.0
TRAIN_TIE_CREATE_BY_USER,05/12/18,15,175.0
TRAIN_TIE_CREATE_BY_USER,04/12/18,12,175.0
TRAIN_TIE_CREATE_BY_USER,03/12/18,15,175.0
TRAIN_TIE_CREATE_BY_USER,02/12/18,23,175.0
TRAIN_TIE_CREATE_BY_USER,01/12/18,16,175.0
TRAIN_TIE_DELETE_BY_USER,30/11/18,13,123.0
TRAIN_TIE_DELETE_BY_USER,29/11/18,8,123.0
TRAIN_TIE_DELETE_BY_USER,28/11/18,10,123.0
TRAIN_TIE_DELETE_BY_USER,27/11/18,37,123.0
TRAIN_TIE_DELETE_BY_USER,26/11/18,13,123.0
TRAIN_TIE_DELETE_BY_USER,25/11/18,8,123.0
TRAIN_TIE_DELETE_BY_USER,24/11/18,4,123.0
TRAIN_TIE_DELETE_BY_USER,23/11/18,20,123.0
TRAIN_TIE_DELETE_BY_USER,22/11/18,6,123.0
TRAIN_TIE_DELETE_BY_USER,21/11/18,12,123.0
TRAIN_TIE_DELETE_BY_USER,20/11/18,3,123.0
TRAIN_TIE_DELETE_BY_USER,16/12/18,2,123.0
TRAIN_TIE_DELETE_BY_USER,15/12/18,4,123.0
TRAIN_TIE_DELETE_BY_USER,14/12/18,11,123.0
TRAIN_TIE_DELETE_BY_USER,13/12/18,50,123.0
TRAIN_TIE_DELETE_BY_USER,12/12/18,29,123.0
TRAIN_TIE_DELETE_BY_USER,11/12/18,20,123.0
TRAIN_TIE_DELETE_BY_USER,10/12/18,19,123.0
TRAIN_TIE_DELETE_BY_USER,09/12/18,43,123.0
TRAIN_TIE_DELETE_BY_USER,08/12/18,14,123.0
TRAIN_TIE_DELETE_BY_USER,07/12/18,5,123.0
TRAIN_TIE_DELETE_BY_USER,06/12/18,7,123.0
TRAIN_TIE_DELETE_BY_USER,05/12/18,5,123.0
TRAIN_TIE_DELETE_BY_USER,04/12/18,4,123.0
TRAIN_TIE_DELETE_BY_USER,03/12/18,9,123.0
TRAIN_TIE_DELETE_BY_USER,02/12/18,17,123.0
TRAIN_TIE_DELETE_BY_USER,01/12/18,10,123.0
ACTIVITY_CREATE_BY_USER,30/11/18,25,104.0
ACTIVITY_CREATE_BY_USER,29/11/18,21,104.0
ACTIVITY_CREATE_BY_USER,28/11/18,20,104.0
ACTIVITY_CREATE_BY_USER,27/11/18,35,104.0
ACTIVITY_CREATE_BY_USER,26/11/18,23,104.0
ACTIVITY_CREATE_BY_USER,25/11/18,18,104.0
ACTIVITY_CREATE_BY_USER,24/11/18,27,104.0
ACTIVITY_CREATE_BY_USER,23/11/18,32,104.0
ACTIVITY_CREATE_BY_USER,22/11/18,15,104.0
ACTIVITY_CREATE_BY_USER,21/11/18,21,104.0
ACTIVITY_CREATE_BY_USER,20/11/18,6,104.0
ACTIVITY_CREATE_BY_USER,16/12/18,10,104.0
ACTIVITY_CREATE_BY_USER,15/12/18,24,104.0
ACTIVITY_CREATE_BY_USER,14/12/18,18,104.0
ACTIVITY_CREATE_BY_USER,13/12/18,27,104.0
ACTIVITY_CREATE_BY_USER,12/12/18,25,104.0
ACTIVITY_CREATE_BY_USER,11/12/18,26,104.0
ACTIVITY_CREATE_BY_USER,10/12/18,17,104.0
ACTIVITY_CREATE_BY_USER,09/12/18,23,104.0
ACTIVITY_CREATE_BY_USER,08/12/18,22,104.0
ACTIVITY_CREATE_BY_USER,07/12/18,20,104.0
ACTIVITY_CREATE_BY_USER,06/12/18,16,104.0
ACTIVITY_CREATE_BY_USER,05/12/18,20,104.0
ACTIVITY_CREATE_BY_USER,04/12/18,16,104.0
ACTIVITY_CREATE_BY_USER,03/12/18,9,104.0
ACTIVITY_CREATE_BY_USER,02/12/18,18,104.0
ACTIVITY_CREATE_BY_USER,01/12/18,19,104.0
ACTIVITY_EDIT_BY_USER,30/11/18,14,77.0
ACTIVITY_EDIT_BY_USER,29/11/18,25,77.0
ACTIVITY_EDIT_BY_USER,28/11/18,19,77.0
ACTIVITY_EDIT_BY_USER,27/11/18,23,77.0
ACTIVITY_EDIT_BY_USER,26/11/18,14,77.0
ACTIVITY_EDIT_BY_USER,25/11/18,11,77.0
ACTIVITY_EDIT_BY_USER,24/11/18,14,77.0
ACTIVITY_EDIT_BY_USER,23/11/18,13,77.0
ACTIVITY_EDIT_BY_USER,22/11/18,23,77.0
ACTIVITY_EDIT_BY_USER,21/11/18,10,77.0
ACTIVITY_EDIT_BY_USER,20/11/18,8,77.0
ACTIVITY_EDIT_BY_USER,16/12/18,8,77.0
ACTIVITY_EDIT_BY_USER,15/12/18,6,77.0
ACTIVITY_EDIT_BY_USER,14/12/18,8,77.0
ACTIVITY_EDIT_BY_USER,13/12/18,28,77.0
ACTIVITY_EDIT_BY_USER,12/12/18,10,77.0
ACTIVITY_EDIT_BY_USER,11/12/18,36,77.0
ACTIVITY_EDIT_BY_USER,10/12/18,10,77.0
ACTIVITY_EDIT_BY_USER,09/12/18,9,77.0
ACTIVITY_EDIT_BY_USER,08/12/18,9,77.0
ACTIVITY_EDIT_BY_USER,07/12/18,11,77.0
ACTIVITY_EDIT_BY_USER,06/12/18,8,77.0
ACTIVITY_EDIT_BY_USER,05/12/18,6,77.0
ACTIVITY_EDIT_BY_USER,04/12/18,6,77.0
ACTIVITY_EDIT_BY_USER,03/12/18,7,77.0
ACTIVITY_EDIT_BY_USER,02/12/18,14,77.0
ACTIVITY_EDIT_BY_USER,01/12/18,9,77.0
TRACK_BLOCK_CREATE_BY_USER,30/11/18,23,68.0
TRACK_BLOCK_CREATE_BY_USER,29/11/18,27,68.0
TRACK_BLOCK_CREATE_BY_USER,28/11/18,28,68.0
TRACK_BLOCK_CREATE_BY_USER,27/11/18,20,68.0
TRACK_BLOCK_CREATE_BY_USER,26/11/18,31,68.0
TRACK_BLOCK_CREATE_BY_USER,25/11/18,20,68.0
TRACK_BLOCK_CREATE_BY_USER,24/11/18,20,68.0
TRACK_BLOCK_CREATE_BY_USER,23/11/18,29,68.0
TRACK_BLOCK_CREATE_BY_USER,22/11/18,20,68.0
TRACK_BLOCK_CREATE_BY_USER,21/11/18,21,68.0
TRACK_BLOCK_CREATE_BY_USER,20/11/18,25,68.0
TRACK_BLOCK_CREATE_BY_USER,16/12/18,11,68.0
TRACK_BLOCK_CREATE_BY_USER,15/12/18,11,68.0
TRACK_BLOCK_CREATE_BY_USER,14/12/18,19,68.0
TRACK_BLOCK_CREATE_BY_USER,13/12/18,17,68.0
TRACK_BLOCK_CREATE_BY_USER,12/12/18,27,68.0
TRACK_BLOCK_CREATE_BY_USER,11/12/18,30,68.0
TRACK_BLOCK_CREATE_BY_USER,10/12/18,20,68.0
TRACK_BLOCK_CREATE_BY_USER,09/12/18,24,68.0
TRACK_BLOCK_CREATE_BY_USER,08/12/18,17,68.0
TRACK_BLOCK_CREATE_BY_USER,07/12/18,18,68.0
TRACK_BLOCK_CREATE_BY_USER,06/12/18,22,68.0
TRACK_BLOCK_CREATE_BY_USER,05/12/18,19,68.0
TRACK_BLOCK_CREATE_BY_USER,04/12/18,19,68.0
TRACK_BLOCK_CREATE_BY_USER,03/12/18,11,68.0
TRACK_BLOCK_CREATE_BY_USER,02/12/18,16,68.0
TRACK_BLOCK_CREATE_BY_USER,01/12/18,14,68.0
ACTIVITY_DELETE_BY_USER,30/11/18,11,59.0
ACTIVITY_DELETE_BY_USER,29/11/18,15,59.0
ACTIVITY_DELETE_BY_USER,28/11/18,16,59.0
ACTIVITY_DELETE_BY_USER,27/11/18,13,59.0
ACTIVITY_DELETE_BY_USER,26/11/18,13,59.0
ACTIVITY_DELETE_BY_USER,25/11/18,12,59.0
ACTIVITY_DELETE_BY_USER,24/11/18,17,59.0
ACTIVITY_DELETE_BY_USER,23/11/18,18,59.0
ACTIVITY_DELETE_BY_USER,22/11/18,4,59.0
ACTIVITY_DELETE_BY_USER,21/11/18,18,59.0
ACTIVITY_DELETE_BY_USER,20/11/18,8,59.0
ACTIVITY_DELETE_BY_USER,15/12/18,12,59.0
ACTIVITY_DELETE_BY_USER,14/12/18,7,59.0
ACTIVITY_DELETE_BY_USER,13/12/18,20,59.0
ACTIVITY_DELETE_BY_USER,12/12/18,7,59.0
ACTIVITY_DELETE_BY_USER,11/12/18,14,59.0
ACTIVITY_DELETE_BY_USER,10/12/18,5,59.0
ACTIVITY_DELETE_BY_USER,09/12/18,9,59.0
ACTIVITY_DELETE_BY_USER,08/12/18,7,59.0
ACTIVITY_DELETE_BY_USER,07/12/18,8,59.0
ACTIVITY_DELETE_BY_USER,06/12/18,9,59.0
ACTIVITY_DELETE_BY_USER,05/12/18,15,59.0
ACTIVITY_DELETE_BY_USER,04/12/18,6,59.0
ACTIVITY_DELETE_BY_USER,03/12/18,4,59.0
ACTIVITY_DELETE_BY_USER,02/12/18,11,59.0
ACTIVITY_DELETE_BY_USER,01/12/18,9,59.0
LINE_CREATE_BY_USER,30/11/18,8,56.0
LINE_CREATE_BY_USER,29/11/18,6,56.0
LINE_CREATE_BY_USER,28/11/18,2,56.0
LINE_CREATE_BY_USER,27/11/18,15,56.0
LINE_CREATE_BY_USER,26/11/18,5,56.0
LINE_CREATE_BY_USER,25/11/18,20,56.0
LINE_CREATE_BY_USER,24/11/18,12,56.0
LINE_CREATE_BY_USER,23/11/18,14,56.0
LINE_CREATE_BY_USER,22/11/18,4,56.0
LINE_CREATE_BY_USER,21/11/18,9,56.0
LINE_CREATE_BY_USER,20/11/18,27,56.0
LINE_CREATE_BY_USER,16/12/18,6,56.0
LINE_CREATE_BY_USER,15/12/18,13,56.0
LINE_CREATE_BY_USER,14/12/18,18,56.0
LINE_CREATE_BY_USER,13/12/18,18,56.0
LINE_CREATE_BY_USER,12/12/18,4,56.0
LINE_CREATE_BY_USER,11/12/18,7,56.0
LINE_CREATE_BY_USER,10/12/18,5,56.0
LINE_CREATE_BY_USER,09/12/18,4,56.0
LINE_CREATE_BY_USER,08/12/18,1,56.0
LINE_CREATE_BY_USER,07/12/18,13,56.0
LINE_CREATE_BY_USER,06/12/18,38,56.0
LINE_CREATE_BY_USER,05/12/18,11,56.0
LINE_CREATE_BY_USER,04/12/18,2,56.0
LINE_CREATE_BY_USER,03/12/18,53,56.0
LINE_CREATE_BY_USER,02/12/18,15,56.0
LINE_CREATE_BY_USER,01/12/18,26,56.0
TRAIN_TIE_EDIT_BY_USER,30/11/18,4,31.0
TRAIN_TIE_EDIT_BY_USER,29/11/18,3,31.0
TRAIN_TIE_EDIT_BY_USER,27/11/18,1,31.0
TRAIN_TIE_EDIT_BY_USER,26/11/18,4,31.0
TRAIN_TIE_EDIT_BY_USER,25/11/18,2,31.0
TRAIN_TIE_EDIT_BY_USER,21/11/18,2,31.0
TRAIN_TIE_EDIT_BY_USER,15/12/18,1,31.0
TRAIN_TIE_EDIT_BY_USER,13/12/18,4,31.0
TRAIN_TIE_EDIT_BY_USER,10/12/18,1,31.0
TRAIN_TIE_EDIT_BY_USER,09/12/18,1,31.0
TRAIN_TIE_EDIT_BY_USER,08/12/18,5,31.0
TRAIN_TIE_EDIT_BY_USER,07/12/18,2,31.0
TRAIN_TIE_EDIT_BY_USER,03/12/18,2,31.0
TRAIN_TIE_EDIT_BY_USER,02/12/18,1,31.0
TRAIN_TIE_EDIT_BY_USER,01/12/18,4,31.0
TRAIN_DELETED_BY_USER,30/11/18,1,17.0
TRAIN_DELETED_BY_USER,29/11/18,3,17.0
TRAIN_DELETED_BY_USER,28/11/18,6,17.0
TRAIN_DELETED_BY_USER,27/11/18,6,17.0
TRAIN_DELETED_BY_USER,26/11/18,5,17.0
TRAIN_DELETED_BY_USER,25/11/18,5,17.0
TRAIN_DELETED_BY_USER,24/11/18,3,17.0
TRAIN_DELETED_BY_USER,23/11/18,8,17.0
TRAIN_DELETED_BY_USER,22/11/18,4,17.0
TRAIN_DELETED_BY_USER,21/11/18,3,17.0
TRAIN_DELETED_BY_USER,20/11/18,3,17.0
TRAIN_DELETED_BY_USER,15/12/18,3,17.0
TRAIN_DELETED_BY_USER,14/12/18,2,17.0
TRAIN_DELETED_BY_USER,13/12/18,8,17.0
TRAIN_DELETED_BY_USER,12/12/18,1,17.0
TRAIN_DELETED_BY_USER,11/12/18,5,17.0
TRAIN_DELETED_BY_USER,10/12/18,10,17.0
TRAIN_DELETED_BY_USER,09/12/18,12,17.0
TRAIN_DELETED_BY_USER,08/12/18,5,17.0
TRAIN_DELETED_BY_USER,07/12/18,9,17.0
TRAIN_DELETED_BY_USER,06/12/18,10,17.0
TRAIN_DELETED_BY_USER,05/12/18,5,17.0
TRAIN_DELETED_BY_USER,04/12/18,8,17.0
TRAIN_DELETED_BY_USER,03/12/18,6,17.0
TRAIN_DELETED_BY_USER,02/12/18,7,17.0
TRAIN_DELETED_BY_USER,01/12/18,4,17.0
LINE_DELETE_BY_USER,28/11/18,3,15.0
LINE_DELETE_BY_USER,27/11/18,9,15.0
LINE_DELETE_BY_USER,25/11/18,6,15.0
LINE_DELETE_BY_USER,24/11/18,4,15.0
LINE_DELETE_BY_USER,23/11/18,6,15.0
LINE_DELETE_BY_USER,22/11/18,2,15.0
LINE_DELETE_BY_USER,21/11/18,2,15.0
LINE_DELETE_BY_USER,20/11/18,12,15.0
LINE_DELETE_BY_USER,14/12/18,3,15.0
LINE_DELETE_BY_USER,13/12/18,7,15.0
LINE_DELETE_BY_USER,10/12/18,2,15.0
LINE_DELETE_BY_USER,09/12/18,2,15.0
LINE_DELETE_BY_USER,07/12/18,7,15.0
LINE_DELETE_BY_USER,06/12/18,12,15.0
LINE_DELETE_BY_USER,05/12/18,1,15.0
LINE_DELETE_BY_USER,03/12/18,6,15.0
LINE_DELETE_BY_USER,02/12/18,2,15.0
LINE_DELETE_BY_USER,01/12/18,3,15.0
TRACK_BLOCK_DELETE_BY_USER,30/11/18,1,13.0
TRACK_BLOCK_DELETE_BY_USER,29/11/18,8,13.0
TRACK_BLOCK_DELETE_BY_USER,28/11/18,1,13.0
TRACK_BLOCK_DELETE_BY_USER,27/11/18,1,13.0
TRACK_BLOCK_DELETE_BY_USER,26/11/18,3,13.0
TRACK_BLOCK_DELETE_BY_USER,24/11/18,1,13.0
TRACK_BLOCK_DELETE_BY_USER,23/11/18,1,13.0
TRACK_BLOCK_DELETE_BY_USER,21/11/18,1,13.0
TRACK_BLOCK_DELETE_BY_USER,20/11/18,8,13.0
TRACK_BLOCK_DELETE_BY_USER,14/12/18,1,13.0
TRACK_BLOCK_DELETE_BY_USER,12/12/18,1,13.0
TRACK_BLOCK_DELETE_BY_USER,11/12/18,3,13.0
TRACK_BLOCK_DELETE_BY_USER,10/12/18,2,13.0
TRACK_BLOCK_DELETE_BY_USER,08/12/18,1,13.0
TRACK_BLOCK_DELETE_BY_USER,06/12/18,3,13.0
TRACK_BLOCK_DELETE_BY_USER,05/12/18,2,13.0
TRACK_BLOCK_DELETE_BY_USER,03/12/18,1,13.0
TRACK_BLOCK_DELETE_BY_USER,02/12/18,1,13.0
TRACK_BLOCK_DELETE_BY_USER,01/12/18,3,13.0
TRAIN_SCHEDULE_REINSTATED_BY_USER,30/11/18,1,9.0
TRAIN_SCHEDULE_REINSTATED_BY_USER,29/11/18,2,9.0
TRAIN_SCHEDULE_REINSTATED_BY_USER,27/11/18,2,9.0
TRAIN_SCHEDULE_REINSTATED_BY_USER,25/11/18,5,9.0
TRAIN_SCHEDULE_REINSTATED_BY_USER,24/11/18,1,9.0
TRAIN_SCHEDULE_REINSTATED_BY_USER,22/11/18,3,9.0
TRAIN_SCHEDULE_REINSTATED_BY_USER,21/11/18,1,9.0
TRAIN_SCHEDULE_REINSTATED_BY_USER,20/11/18,1,9.0
TRAIN_SCHEDULE_REINSTATED_BY_USER,16/12/18,1,9.0
TRAIN_SCHEDULE_REINSTATED_BY_USER,15/12/18,2,9.0
TRAIN_SCHEDULE_REINSTATED_BY_USER,09/12/18,4,9.0
TRAIN_SCHEDULE_REINSTATED_BY_USER,08/12/18,2,9.0
TRAIN_SCHEDULE_REINSTATED_BY_USER,07/12/18,1,9.0
TRAIN_SCHEDULE_REINSTATED_BY_USER,06/12/18,1,9.0
TRAIN_SCHEDULE_REINSTATED_BY_USER,03/12/18,4,9.0
TRAIN_SCHEDULE_REINSTATED_BY_USER,02/12/18,3,9.0
TRAIN_SCHEDULE_REINSTATED_BY_USER,01/12/18,1,9.0
TRAIN_SCHEDULE_TERMINATED_BY_USER,30/11/18,1,2.0
TRAIN_SCHEDULE_TERMINATED_BY_USER,29/11/18,1,2.0
TRAIN_SCHEDULE_TERMINATED_BY_USER,25/11/18,1,2.0
TRAIN_SCHEDULE_TERMINATED_BY_USER,22/11/18,3,2.0
TRAIN_SCHEDULE_TERMINATED_BY_USER,20/11/18,2,2.0
TRAIN_SCHEDULE_TERMINATED_BY_USER,16/12/18,1,2.0
TRAIN_SCHEDULE_TERMINATED_BY_USER,09/12/18,3,2.0
TRAIN_SCHEDULE_TERMINATED_BY_USER,08/12/18,2,2.0
TRAIN_SCHEDULE_TERMINATED_BY_USER,07/12/18,4,2.0
TRAIN_SCHEDULE_TERMINATED_BY_USER,06/12/18,1,2.0
TRAIN_SCHEDULE_TERMINATED_BY_USER,04/12/18,1,2.0
TRAIN_SCHEDULE_TERMINATED_BY_USER,03/12/18,2,2.0
TRAIN_SPEED_RESTRICION_CREATE_BY_USER,13/12/18,1,2.0
LINE_EDIT_COLOR_BY_USER,24/11/18,1,2.0
LINE_EDIT_COLOR_BY_USER,23/11/18,1,2.0
LINE_EDIT_COLOR_BY_USER,20/11/18,2,2.0
LINE_EDIT_THICKNESS_BY_USER,20/11/18,2,1.5
LINE_EDIT_THICKNESS_BY_USER,15/12/18,1,1.5
LINE_EDIT_PATTERN_BY_USER,23/11/18,1,1.5
LINE_EDIT_PATTERN_BY_USER,20/11/18,1,1.5
TRAIN_SCHEDULE_SUPPRESS_BY_USER,25/11/18,1,1.0
TRAIN_SCHEDULE_SUPPRESS_BY_USER,24/11/18,2,1.0
TRAIN_SCHEDULE_SUPPRESS_BY_USER,20/11/18,3,1.0
