TRIGGERPOINT,DATE,n,MEDIAN
TRACK_BLOCK_EDIT_BY_USER,30/11/18,31,184.0
TRACK_BLOCK_EDIT_BY_USER,29/11/18,38,184.0
TRACK_BLOCK_EDIT_BY_USER,28/11/18,59,184.0
TRACK_BLOCK_EDIT_BY_USER,27/11/18,59,184.0
TRACK_BLOCK_EDIT_BY_USER,26/11/18,57,184.0
TRACK_BLOCK_EDIT_BY_USER,25/11/18,18,184.0
TRACK_BLOCK_EDIT_BY_USER,24/11/18,100,184.0
TRACK_BLOCK_EDIT_BY_USER,23/11/18,65,184.0
TRACK_BLOCK_EDIT_BY_USER,22/11/18,27,184.0
TRACK_BLOCK_EDIT_BY_USER,21/11/18,39,184.0
TRACK_BLOCK_EDIT_BY_USER,20/11/18,21,184.0
TRACK_BLOCK_EDIT_BY_USER,16/12/18,10,184.0
TRACK_BLOCK_EDIT_BY_USER,15/12/18,23,184.0
TRACK_BLOCK_EDIT_BY_USER,14/12/18,19,184.0
TRACK_BLOCK_EDIT_BY_USER,13/12/18,30,184.0
TRACK_BLOCK_EDIT_BY_USER,12/12/18,71,184.0
TRACK_BLOCK_EDIT_BY_USER,11/12/18,32,184.0
TRACK_BLOCK_EDIT_BY_USER,10/12/18,37,184.0
TRACK_BLOCK_EDIT_BY_USER,09/12/18,29,184.0
TRACK_BLOCK_EDIT_BY_USER,08/12/18,19,184.0
TRACK_BLOCK_EDIT_BY_USER,07/12/18,16,184.0
TRACK_BLOCK_EDIT_BY_USER,06/12/18,19,184.0
TRACK_BLOCK_EDIT_BY_USER,05/12/18,17,184.0
TRACK_BLOCK_EDIT_BY_USER,04/12/18,65,184.0
TRACK_BLOCK_EDIT_BY_USER,03/12/18,52,184.0
TRACK_BLOCK_EDIT_BY_USER,02/12/18,61,184.0
TRACK_BLOCK_EDIT_BY_USER,01/12/18,20,184.0
TRAIN_TIE_CREATE_BY_USER,30/11/18,63,175.0
TRAIN_TIE_CREATE_BY_USER,29/11/18,38,175.0
TRAIN_TIE_CREATE_BY_USER,28/11/18,31,175.0
TRAIN_TIE_CREATE_BY_USER,27/11/18,51,175.0
TRAIN_TIE_CREATE_BY_USER,26/11/18,97,175.0
TRAIN_TIE_CREATE_BY_USER,25/11/18,45,175.0
TRAIN_TIE_CREATE_BY_USER,24/11/18,33,175.0
TRAIN_TIE_CREATE_BY_USER,23/11/18,57,175.0
TRAIN_TIE_CREATE_BY_USER,22/11/18,27,175.0
TRAIN_TIE_CREATE_BY_USER,21/11/18,48,175.0
TRAIN_TIE_CREATE_BY_USER,20/11/18,56,175.0
TRAIN_TIE_CREATE_BY_USER,16/12/18,48,175.0
TRAIN_TIE_CREATE_BY_USER,15/12/18,54,175.0
TRAIN_TIE_CREATE_BY_USER,14/12/18,41,175.0
TRAIN_TIE_CREATE_BY_USER,13/12/18,87,175.0
TRAIN_TIE_CREATE_BY_USER,12/12/18,112,175.0
TRAIN_TIE_CREATE_BY_USER,11/12/18,99,175.0
TRAIN_TIE_CREATE_BY_USER,10/12/18,80,175.0
TRAIN_TIE_CREATE_BY_USER,09/12/18,81,175.0
TRAIN_TIE_CREATE_BY_USER,08/12/18,67,175.0
TRAIN_TIE_CREATE_BY_USER,07/12/18,90,175.0
TRAIN_TIE_CREATE_BY_USER,06/12/18,29,175.0
TRAIN_TIE_CREATE_BY_USER,05/12/18,22,175.0
TRAIN_TIE_CREATE_BY_USER,04/12/18,52,175.0
TRAIN_TIE_CREATE_BY_USER,03/12/18,74,175.0
TRAIN_TIE_CREATE_BY_USER,02/12/18,53,175.0
TRAIN_TIE_CREATE_BY_USER,01/12/18,23,175.0
TRAIN_TIE_DELETE_BY_USER,30/11/18,53,123.0
TRAIN_TIE_DELETE_BY_USER,29/11/18,27,123.0
TRAIN_TIE_DELETE_BY_USER,28/11/18,17,123.0
TRAIN_TIE_DELETE_BY_USER,27/11/18,24,123.0
TRAIN_TIE_DELETE_BY_USER,26/11/18,49,123.0
TRAIN_TIE_DELETE_BY_USER,25/11/18,23,123.0
TRAIN_TIE_DELETE_BY_USER,24/11/18,14,123.0
TRAIN_TIE_DELETE_BY_USER,23/11/18,49,123.0
TRAIN_TIE_DELETE_BY_USER,22/11/18,18,123.0
TRAIN_TIE_DELETE_BY_USER,21/11/18,32,123.0
TRAIN_TIE_DELETE_BY_USER,20/11/18,39,123.0
TRAIN_TIE_DELETE_BY_USER,16/12/18,23,123.0
TRAIN_TIE_DELETE_BY_USER,15/12/18,36,123.0
TRAIN_TIE_DELETE_BY_USER,14/12/18,31,123.0
TRAIN_TIE_DELETE_BY_USER,13/12/18,70,123.0
TRAIN_TIE_DELETE_BY_USER,12/12/18,93,123.0
TRAIN_TIE_DELETE_BY_USER,11/12/18,80,123.0
TRAIN_TIE_DELETE_BY_USER,10/12/18,59,123.0
TRAIN_TIE_DELETE_BY_USER,09/12/18,65,123.0
TRAIN_TIE_DELETE_BY_USER,08/12/18,50,123.0
TRAIN_TIE_DELETE_BY_USER,07/12/18,61,123.0
TRAIN_TIE_DELETE_BY_USER,06/12/18,18,123.0
TRAIN_TIE_DELETE_BY_USER,05/12/18,15,123.0
TRAIN_TIE_DELETE_BY_USER,04/12/18,36,123.0
TRAIN_TIE_DELETE_BY_USER,03/12/18,62,123.0
TRAIN_TIE_DELETE_BY_USER,02/12/18,43,123.0
TRAIN_TIE_DELETE_BY_USER,01/12/18,15,123.0
ACTIVITY_CREATE_BY_USER,30/11/18,38,104.0
ACTIVITY_CREATE_BY_USER,29/11/18,27,104.0
ACTIVITY_CREATE_BY_USER,28/11/18,22,104.0
ACTIVITY_CREATE_BY_USER,27/11/18,17,104.0
ACTIVITY_CREATE_BY_USER,26/11/18,37,104.0
ACTIVITY_CREATE_BY_USER,25/11/18,21,104.0
ACTIVITY_CREATE_BY_USER,24/11/18,15,104.0
ACTIVITY_CREATE_BY_USER,23/11/18,29,104.0
ACTIVITY_CREATE_BY_USER,22/11/18,16,104.0
ACTIVITY_CREATE_BY_USER,21/11/18,47,104.0
ACTIVITY_CREATE_BY_USER,20/11/18,39,104.0
ACTIVITY_CREATE_BY_USER,16/12/18,22,104.0
ACTIVITY_CREATE_BY_USER,15/12/18,38,104.0
ACTIVITY_CREATE_BY_USER,14/12/18,32,104.0
ACTIVITY_CREATE_BY_USER,13/12/18,43,104.0
ACTIVITY_CREATE_BY_USER,12/12/18,44,104.0
ACTIVITY_CREATE_BY_USER,11/12/18,43,104.0
ACTIVITY_CREATE_BY_USER,10/12/18,24,104.0
ACTIVITY_CREATE_BY_USER,09/12/18,19,104.0
ACTIVITY_CREATE_BY_USER,08/12/18,25,104.0
ACTIVITY_CREATE_BY_USER,07/12/18,36,104.0
ACTIVITY_CREATE_BY_USER,06/12/18,29,104.0
ACTIVITY_CREATE_BY_USER,05/12/18,26,104.0
ACTIVITY_CREATE_BY_USER,04/12/18,18,104.0
ACTIVITY_CREATE_BY_USER,03/12/18,38,104.0
ACTIVITY_CREATE_BY_USER,02/12/18,92,104.0
ACTIVITY_CREATE_BY_USER,01/12/18,36,104.0
ACTIVITY_EDIT_BY_USER,30/11/18,25,77.0
ACTIVITY_EDIT_BY_USER,29/11/18,24,77.0
ACTIVITY_EDIT_BY_USER,28/11/18,14,77.0
ACTIVITY_EDIT_BY_USER,27/11/18,14,77.0
ACTIVITY_EDIT_BY_USER,26/11/18,33,77.0
ACTIVITY_EDIT_BY_USER,25/11/18,15,77.0
ACTIVITY_EDIT_BY_USER,24/11/18,3,77.0
ACTIVITY_EDIT_BY_USER,23/11/18,13,77.0
ACTIVITY_EDIT_BY_USER,22/11/18,13,77.0
ACTIVITY_EDIT_BY_USER,21/11/18,31,77.0
ACTIVITY_EDIT_BY_USER,20/11/18,26,77.0
ACTIVITY_EDIT_BY_USER,16/12/18,10,77.0
ACTIVITY_EDIT_BY_USER,15/12/18,36,77.0
ACTIVITY_EDIT_BY_USER,14/12/18,26,77.0
ACTIVITY_EDIT_BY_USER,13/12/18,49,77.0
ACTIVITY_EDIT_BY_USER,12/12/18,62,77.0
ACTIVITY_EDIT_BY_USER,11/12/18,37,77.0
ACTIVITY_EDIT_BY_USER,10/12/18,19,77.0
ACTIVITY_EDIT_BY_USER,09/12/18,14,77.0
ACTIVITY_EDIT_BY_USER,08/12/18,4,77.0
ACTIVITY_EDIT_BY_USER,07/12/18,13,77.0
ACTIVITY_EDIT_BY_USER,06/12/18,27,77.0
ACTIVITY_EDIT_BY_USER,05/12/18,9,77.0
ACTIVITY_EDIT_BY_USER,04/12/18,7,77.0
ACTIVITY_EDIT_BY_USER,03/12/18,43,77.0
ACTIVITY_EDIT_BY_USER,02/12/18,125,77.0
ACTIVITY_EDIT_BY_USER,01/12/18,14,77.0
TRACK_BLOCK_CREATE_BY_USER,30/11/18,17,68.0
TRACK_BLOCK_CREATE_BY_USER,29/11/18,18,68.0
TRACK_BLOCK_CREATE_BY_USER,28/11/18,21,68.0
TRACK_BLOCK_CREATE_BY_USER,27/11/18,8,68.0
TRACK_BLOCK_CREATE_BY_USER,26/11/18,12,68.0
TRACK_BLOCK_CREATE_BY_USER,25/11/18,10,68.0
TRACK_BLOCK_CREATE_BY_USER,24/11/18,24,68.0
TRACK_BLOCK_CREATE_BY_USER,23/11/18,13,68.0
TRACK_BLOCK_CREATE_BY_USER,22/11/18,10,68.0
TRACK_BLOCK_CREATE_BY_USER,21/11/18,7,68.0
TRACK_BLOCK_CREATE_BY_USER,20/11/18,4,68.0
TRACK_BLOCK_CREATE_BY_USER,16/12/18,3,68.0
TRACK_BLOCK_CREATE_BY_USER,15/12/18,8,68.0
TRACK_BLOCK_CREATE_BY_USER,14/12/18,15,68.0
TRACK_BLOCK_CREATE_BY_USER,13/12/18,6,68.0
TRACK_BLOCK_CREATE_BY_USER,12/12/18,10,68.0
TRACK_BLOCK_CREATE_BY_USER,11/12/18,4,68.0
TRACK_BLOCK_CREATE_BY_USER,10/12/18,10,68.0
TRACK_BLOCK_CREATE_BY_USER,09/12/18,10,68.0
TRACK_BLOCK_CREATE_BY_USER,08/12/18,14,68.0
TRACK_BLOCK_CREATE_BY_USER,07/12/18,9,68.0
TRACK_BLOCK_CREATE_BY_USER,06/12/18,6,68.0
TRACK_BLOCK_CREATE_BY_USER,05/12/18,8,68.0
TRACK_BLOCK_CREATE_BY_USER,04/12/18,19,68.0
TRACK_BLOCK_CREATE_BY_USER,03/12/18,14,68.0
TRACK_BLOCK_CREATE_BY_USER,02/12/18,8,68.0
TRACK_BLOCK_CREATE_BY_USER,01/12/18,14,68.0
ACTIVITY_DELETE_BY_USER,30/11/18,20,59.0
ACTIVITY_DELETE_BY_USER,29/11/18,13,59.0
ACTIVITY_DELETE_BY_USER,28/11/18,15,59.0
ACTIVITY_DELETE_BY_USER,27/11/18,12,59.0
ACTIVITY_DELETE_BY_USER,26/11/18,19,59.0
ACTIVITY_DELETE_BY_USER,25/11/18,13,59.0
ACTIVITY_DELETE_BY_USER,24/11/18,7,59.0
ACTIVITY_DELETE_BY_USER,23/11/18,25,59.0
ACTIVITY_DELETE_BY_USER,22/11/18,10,59.0
ACTIVITY_DELETE_BY_USER,21/11/18,34,59.0
ACTIVITY_DELETE_BY_USER,20/11/18,29,59.0
ACTIVITY_DELETE_BY_USER,16/12/18,12,59.0
ACTIVITY_DELETE_BY_USER,15/12/18,25,59.0
ACTIVITY_DELETE_BY_USER,14/12/18,14,59.0
ACTIVITY_DELETE_BY_USER,13/12/18,25,59.0
ACTIVITY_DELETE_BY_USER,12/12/18,28,59.0
ACTIVITY_DELETE_BY_USER,11/12/18,23,59.0
ACTIVITY_DELETE_BY_USER,10/12/18,12,59.0
ACTIVITY_DELETE_BY_USER,09/12/18,7,59.0
ACTIVITY_DELETE_BY_USER,08/12/18,12,59.0
ACTIVITY_DELETE_BY_USER,07/12/18,24,59.0
ACTIVITY_DELETE_BY_USER,06/12/18,13,59.0
ACTIVITY_DELETE_BY_USER,05/12/18,18,59.0
ACTIVITY_DELETE_BY_USER,04/12/18,7,59.0
ACTIVITY_DELETE_BY_USER,03/12/18,25,59.0
ACTIVITY_DELETE_BY_USER,02/12/18,70,59.0
ACTIVITY_DELETE_BY_USER,01/12/18,26,59.0
LINE_CREATE_BY_USER,30/11/18,8,56.0
LINE_CREATE_BY_USER,29/11/18,15,56.0
LINE_CREATE_BY_USER,28/11/18,4,56.0
LINE_CREATE_BY_USER,27/11/18,7,56.0
LINE_CREATE_BY_USER,26/11/18,4,56.0
LINE_CREATE_BY_USER,25/11/18,3,56.0
LINE_CREATE_BY_USER,24/11/18,21,56.0
LINE_CREATE_BY_USER,23/11/18,13,56.0
LINE_CREATE_BY_USER,22/11/18,27,56.0
LINE_CREATE_BY_USER,21/11/18,23,56.0
LINE_CREATE_BY_USER,20/11/18,19,56.0
LINE_CREATE_BY_USER,16/12/18,8,56.0
LINE_CREATE_BY_USER,15/12/18,16,56.0
LINE_CREATE_BY_USER,14/12/18,12,56.0
LINE_CREATE_BY_USER,13/12/18,55,56.0
LINE_CREATE_BY_USER,12/12/18,26,56.0
LINE_CREATE_BY_USER,11/12/18,15,56.0
LINE_CREATE_BY_USER,10/12/18,28,56.0
LINE_CREATE_BY_USER,09/12/18,2,56.0
LINE_CREATE_BY_USER,07/12/18,2,56.0
LINE_CREATE_BY_USER,06/12/18,7,56.0
LINE_CREATE_BY_USER,05/12/18,11,56.0
LINE_CREATE_BY_USER,04/12/18,8,56.0
LINE_CREATE_BY_USER,03/12/18,26,56.0
LINE_CREATE_BY_USER,02/12/18,21,56.0
LINE_CREATE_BY_USER,01/12/18,16,56.0
TRAIN_TIE_EDIT_BY_USER,30/11/18,20,31.0
TRAIN_TIE_EDIT_BY_USER,29/11/18,16,31.0
TRAIN_TIE_EDIT_BY_USER,28/11/18,5,31.0
TRAIN_TIE_EDIT_BY_USER,27/11/18,10,31.0
TRAIN_TIE_EDIT_BY_USER,26/11/18,14,31.0
TRAIN_TIE_EDIT_BY_USER,25/11/18,15,31.0
TRAIN_TIE_EDIT_BY_USER,24/11/18,7,31.0
TRAIN_TIE_EDIT_BY_USER,23/11/18,6,31.0
TRAIN_TIE_EDIT_BY_USER,22/11/18,7,31.0
TRAIN_TIE_EDIT_BY_USER,21/11/18,8,31.0
TRAIN_TIE_EDIT_BY_USER,20/11/18,11,31.0
TRAIN_TIE_EDIT_BY_USER,16/12/18,6,31.0
TRAIN_TIE_EDIT_BY_USER,15/12/18,5,31.0
TRAIN_TIE_EDIT_BY_USER,12/12/18,13,31.0
TRAIN_TIE_EDIT_BY_USER,11/12/18,2,31.0
TRAIN_TIE_EDIT_BY_USER,09/12/18,9,31.0
TRAIN_TIE_EDIT_BY_USER,08/12/18,6,31.0
TRAIN_TIE_EDIT_BY_USER,07/12/18,1,31.0
TRAIN_TIE_EDIT_BY_USER,05/12/18,3,31.0
TRAIN_TIE_EDIT_BY_USER,04/12/18,12,31.0
TRAIN_TIE_EDIT_BY_USER,03/12/18,11,31.0
TRAIN_TIE_EDIT_BY_USER,02/12/18,8,31.0
TRAIN_TIE_EDIT_BY_USER,01/12/18,2,31.0
TRAIN_DELETED_BY_USER,30/11/18,5,17.0
TRAIN_DELETED_BY_USER,29/11/18,3,17.0
TRAIN_DELETED_BY_USER,28/11/18,3,17.0
TRAIN_DELETED_BY_USER,27/11/18,6,17.0
TRAIN_DELETED_BY_USER,26/11/18,7,17.0
TRAIN_DELETED_BY_USER,25/11/18,6,17.0
TRAIN_DELETED_BY_USER,24/11/18,5,17.0
TRAIN_DELETED_BY_USER,23/11/18,11,17.0
TRAIN_DELETED_BY_USER,22/11/18,7,17.0
TRAIN_DELETED_BY_USER,21/11/18,3,17.0
TRAIN_DELETED_BY_USER,20/11/18,12,17.0
TRAIN_DELETED_BY_USER,16/12/18,6,17.0
TRAIN_DELETED_BY_USER,15/12/18,10,17.0
TRAIN_DELETED_BY_USER,14/12/18,3,17.0
TRAIN_DELETED_BY_USER,13/12/18,15,17.0
TRAIN_DELETED_BY_USER,12/12/18,6,17.0
TRAIN_DELETED_BY_USER,10/12/18,6,17.0
TRAIN_DELETED_BY_USER,09/12/18,7,17.0
TRAIN_DELETED_BY_USER,08/12/18,4,17.0
TRAIN_DELETED_BY_USER,07/12/18,7,17.0
TRAIN_DELETED_BY_USER,06/12/18,2,17.0
TRAIN_DELETED_BY_USER,05/12/18,6,17.0
TRAIN_DELETED_BY_USER,04/12/18,3,17.0
TRAIN_DELETED_BY_USER,03/12/18,11,17.0
TRAIN_DELETED_BY_USER,02/12/18,4,17.0
TRAIN_DELETED_BY_USER,01/12/18,4,17.0
LINE_DELETE_BY_USER,30/11/18,3,15.0
LINE_DELETE_BY_USER,29/11/18,11,15.0
LINE_DELETE_BY_USER,28/11/18,1,15.0
LINE_DELETE_BY_USER,24/11/18,3,15.0
LINE_DELETE_BY_USER,23/11/18,11,15.0
LINE_DELETE_BY_USER,22/11/18,10,15.0
LINE_DELETE_BY_USER,21/11/18,14,15.0
LINE_DELETE_BY_USER,20/11/18,13,15.0
LINE_DELETE_BY_USER,16/12/18,4,15.0
LINE_DELETE_BY_USER,15/12/18,5,15.0
LINE_DELETE_BY_USER,14/12/18,5,15.0
LINE_DELETE_BY_USER,13/12/18,15,15.0
LINE_DELETE_BY_USER,12/12/18,19,15.0
LINE_DELETE_BY_USER,11/12/18,3,15.0
LINE_DELETE_BY_USER,10/12/18,6,15.0
LINE_DELETE_BY_USER,09/12/18,2,15.0
LINE_DELETE_BY_USER,07/12/18,1,15.0
LINE_DELETE_BY_USER,06/12/18,4,15.0
LINE_DELETE_BY_USER,05/12/18,7,15.0
LINE_DELETE_BY_USER,04/12/18,4,15.0
LINE_DELETE_BY_USER,03/12/18,7,15.0
LINE_DELETE_BY_USER,02/12/18,9,15.0
LINE_DELETE_BY_USER,01/12/18,9,15.0
TRACK_BLOCK_DELETE_BY_USER,30/11/18,4,13.0
TRACK_BLOCK_DELETE_BY_USER,28/11/18,3,13.0
TRACK_BLOCK_DELETE_BY_USER,26/11/18,2,13.0
TRACK_BLOCK_DELETE_BY_USER,25/11/18,1,13.0
TRACK_BLOCK_DELETE_BY_USER,24/11/18,1,13.0
TRACK_BLOCK_DELETE_BY_USER,23/11/18,1,13.0
TRACK_BLOCK_DELETE_BY_USER,22/11/18,3,13.0
TRACK_BLOCK_DELETE_BY_USER,21/11/18,4,13.0
TRACK_BLOCK_DELETE_BY_USER,14/12/18,1,13.0
TRACK_BLOCK_DELETE_BY_USER,13/12/18,1,13.0
TRACK_BLOCK_DELETE_BY_USER,12/12/18,4,13.0
TRACK_BLOCK_DELETE_BY_USER,11/12/18,1,13.0
TRACK_BLOCK_DELETE_BY_USER,08/12/18,2,13.0
TRACK_BLOCK_DELETE_BY_USER,07/12/18,1,13.0
TRACK_BLOCK_DELETE_BY_USER,04/12/18,2,13.0
TRACK_BLOCK_DELETE_BY_USER,03/12/18,2,13.0
TRACK_BLOCK_DELETE_BY_USER,02/12/18,1,13.0
TRAIN_SCHEDULE_REINSTATED_BY_USER,30/11/18,1,9.0
TRAIN_SCHEDULE_REINSTATED_BY_USER,29/11/18,1,9.0
TRAIN_SCHEDULE_REINSTATED_BY_USER,28/11/18,1,9.0
TRAIN_SCHEDULE_REINSTATED_BY_USER,24/11/18,4,9.0
TRAIN_SCHEDULE_REINSTATED_BY_USER,23/11/18,1,9.0
TRAIN_SCHEDULE_REINSTATED_BY_USER,20/11/18,2,9.0
TRAIN_SCHEDULE_REINSTATED_BY_USER,16/12/18,1,9.0
TRAIN_SCHEDULE_REINSTATED_BY_USER,15/12/18,2,9.0
TRAIN_SCHEDULE_REINSTATED_BY_USER,14/12/18,3,9.0
TRAIN_SCHEDULE_REINSTATED_BY_USER,12/12/18,1,9.0
TRAIN_SCHEDULE_REINSTATED_BY_USER,11/12/18,1,9.0
TRAIN_SCHEDULE_REINSTATED_BY_USER,10/12/18,2,9.0
TRAIN_SCHEDULE_REINSTATED_BY_USER,08/12/18,1,9.0
TRAIN_SCHEDULE_REINSTATED_BY_USER,07/12/18,5,9.0
TRAIN_SCHEDULE_REINSTATED_BY_USER,06/12/18,1,9.0
TRAIN_SCHEDULE_REINSTATED_BY_USER,05/12/18,2,9.0
TRAIN_SCHEDULE_REINSTATED_BY_USER,03/12/18,1,9.0
TRAIN_SCHEDULE_REINSTATED_BY_USER,02/12/18,1,9.0
TRAIN_SCHEDULE_TERMINATED_BY_USER,23/11/18,1,2.0
TRAIN_SCHEDULE_TERMINATED_BY_USER,20/11/18,2,2.0
TRAIN_SCHEDULE_TERMINATED_BY_USER,16/12/18,1,2.0
TRAIN_SCHEDULE_TERMINATED_BY_USER,15/12/18,2,2.0
TRAIN_SCHEDULE_TERMINATED_BY_USER,12/12/18,1,2.0
TRAIN_SCHEDULE_TERMINATED_BY_USER,11/12/18,1,2.0
TRAIN_SCHEDULE_TERMINATED_BY_USER,10/12/18,2,2.0
TRAIN_SCHEDULE_TERMINATED_BY_USER,07/12/18,3,2.0
TRAIN_SCHEDULE_TERMINATED_BY_USER,06/12/18,1,2.0
TRAIN_SCHEDULE_TERMINATED_BY_USER,05/12/18,3,2.0
TRAIN_SCHEDULE_TERMINATED_BY_USER,03/12/18,3,2.0
TRAIN_SPEED_RESTRICION_CREATE_BY_USER,29/11/18,1,2.0
TRAIN_SPEED_RESTRICION_CREATE_BY_USER,23/11/18,1,2.0
TRAIN_SPEED_RESTRICION_CREATE_BY_USER,14/12/18,1,2.0
TRAIN_SPEED_RESTRICION_CREATE_BY_USER,12/12/18,1,2.0
TRAIN_SPEED_RESTRICION_CREATE_BY_USER,02/12/18,1,2.0
TRAIN_SPEED_RESTRICION_CREATE_BY_USER,01/12/18,1,2.0
LINE_EDIT_COLOR_BY_USER,24/11/18,1,2.0
LINE_EDIT_COLOR_BY_USER,23/11/18,1,2.0
LINE_EDIT_COLOR_BY_USER,22/11/18,1,2.0
LINE_EDIT_COLOR_BY_USER,15/12/18,1,2.0
LINE_EDIT_COLOR_BY_USER,14/12/18,1,2.0
LINE_EDIT_COLOR_BY_USER,11/12/18,1,2.0
LINE_EDIT_THICKNESS_BY_USER,23/11/18,2,1.5
LINE_EDIT_THICKNESS_BY_USER,22/11/18,1,1.5
LINE_EDIT_THICKNESS_BY_USER,15/12/18,1,1.5
LINE_EDIT_THICKNESS_BY_USER,14/12/18,1,1.5
LINE_EDIT_THICKNESS_BY_USER,03/12/18,3,1.5
LINE_EDIT_THICKNESS_BY_USER,02/12/18,1,1.5
LINE_EDIT_THICKNESS_BY_USER,01/12/18,1,1.5
TRAIN_SPEED_RESTRICION_EDIT_BY_USER,02/12/18,1,1.5
LINE_EDIT_PATTERN_BY_USER,23/11/18,1,1.5
LINE_EDIT_PATTERN_BY_USER,22/11/18,1,1.5
LINE_EDIT_PATTERN_BY_USER,15/12/18,1,1.5
LINE_EDIT_PATTERN_BY_USER,14/12/18,1,1.5
LINE_EDIT_PATTERN_BY_USER,11/12/18,1,1.5
TRAIN_SCHEDULE_SUPPRESS_BY_USER,25/11/18,1,1.0
TRAIN_SCHEDULE_SUPPRESS_BY_USER,24/11/18,3,1.0
TRAIN_SCHEDULE_SUPPRESS_BY_USER,22/11/18,1,1.0
TRAIN_SCHEDULE_SUPPRESS_BY_USER,20/11/18,1,1.0
TRAIN_SCHEDULE_SUPPRESS_BY_USER,15/12/18,1,1.0
TRAIN_SCHEDULE_SUPPRESS_BY_USER,02/12/18,1,1.0
TRAIN_SPEED_RESTRICION_DELETE_BY_USER,29/11/18,1,1.0
TRAIN_SPEED_RESTRICION_DELETE_BY_USER,23/11/18,1,1.0
