DATE,DAY_INTERVAL,n
01/12/18,00h - 06h,269
01/12/18,06h - 12h,228
01/12/18,12h - 18h,199
01/12/18,18h - 24h,189
02/12/18,00h - 06h,278
02/12/18,06h - 12h,344
02/12/18,12h - 18h,323
02/12/18,18h - 24h,101
03/12/18,00h - 06h,274
03/12/18,06h - 12h,293
03/12/18,12h - 18h,381
03/12/18,18h - 24h,156
04/12/18,00h - 06h,245
04/12/18,06h - 12h,204
04/12/18,12h - 18h,197
04/12/18,18h - 24h,178
05/12/18,00h - 06h,285
05/12/18,06h - 12h,256
05/12/18,12h - 18h,245
05/12/18,18h - 24h,163
06/12/18,00h - 06h,226
06/12/18,06h - 12h,259
06/12/18,12h - 18h,254
06/12/18,18h - 24h,212
07/12/18,00h - 06h,235
07/12/18,06h - 12h,236
07/12/18,12h - 18h,214
07/12/18,18h - 24h,130
08/12/18,00h - 06h,178
08/12/18,06h - 12h,241
08/12/18,12h - 18h,119
08/12/18,18h - 24h,134
09/12/18,00h - 06h,170
09/12/18,06h - 12h,249
09/12/18,12h - 18h,222
09/12/18,18h - 24h,120
10/12/18,00h - 06h,136
10/12/18,06h - 12h,187
10/12/18,12h - 18h,282
10/12/18,18h - 24h,168
11/12/18,00h - 06h,272
11/12/18,06h - 12h,206
11/12/18,12h - 18h,193
11/12/18,18h - 24h,240
12/12/18,00h - 06h,300
12/12/18,06h - 12h,205
12/12/18,12h - 18h,235
12/12/18,18h - 24h,315
13/12/18,00h - 06h,352
13/12/18,06h - 12h,274
13/12/18,12h - 18h,227
13/12/18,18h - 24h,220
14/12/18,00h - 06h,174
14/12/18,06h - 12h,237
14/12/18,12h - 18h,159
14/12/18,18h - 24h,183
15/12/18,00h - 06h,184
15/12/18,06h - 12h,266
15/12/18,12h - 18h,297
15/12/18,18h - 24h,198
16/12/18,00h - 06h,265
16/12/18,06h - 12h,157
16/12/18,12h - 18h,38
16/12/18,18h - 24h,0
20/11/18,00h - 06h,0
20/11/18,06h - 12h,210
20/11/18,12h - 18h,300
20/11/18,18h - 24h,298
21/11/18,00h - 06h,315
21/11/18,06h - 12h,398
21/11/18,12h - 18h,220
21/11/18,18h - 24h,133
22/11/18,00h - 06h,207
22/11/18,06h - 12h,199
22/11/18,12h - 18h,210
22/11/18,18h - 24h,152
23/11/18,00h - 06h,249
23/11/18,06h - 12h,279
23/11/18,12h - 18h,229
23/11/18,18h - 24h,181
24/11/18,00h - 06h,213
24/11/18,06h - 12h,174
24/11/18,12h - 18h,211
24/11/18,18h - 24h,214
25/11/18,00h - 06h,191
25/11/18,06h - 12h,166
25/11/18,12h - 18h,170
25/11/18,18h - 24h,96
26/11/18,00h - 06h,328
26/11/18,06h - 12h,275
26/11/18,12h - 18h,252
26/11/18,18h - 24h,170
27/11/18,00h - 06h,260
27/11/18,06h - 12h,232
27/11/18,12h - 18h,191
27/11/18,18h - 24h,191
28/11/18,00h - 06h,240
28/11/18,06h - 12h,300
28/11/18,12h - 18h,187
28/11/18,18h - 24h,108
29/11/18,00h - 06h,198
29/11/18,06h - 12h,299
29/11/18,12h - 18h,222
29/11/18,18h - 24h,121
30/11/18,00h - 06h,222
30/11/18,06h - 12h,181
30/11/18,12h - 18h,234
30/11/18,18h - 24h,249
Missing data (0),00h - 06h,0
Missing data (0),06h - 12h,0
Missing data (0),12h - 18h,0
Missing data (0),18h - 24h,0
Missing data (1),00h - 06h,0
Missing data (1),06h - 12h,0
Missing data (1),12h - 18h,0
Missing data (1),18h - 24h,0
Missing data (2),00h - 06h,0
Missing data (2),06h - 12h,0
Missing data (2),12h - 18h,0
Missing data (2),18h - 24h,0
