TRIGGERPOINT,n
TRACK_BLOCK_CREATE_BY_USER,1849
TRAIN_TIE_EDIT_BY_USER,520
TRAIN_TIE_CREATE_BY_USER,3946
ACTIVITY_DELETE_BY_USER,1422
ACTIVITY_CREATE_BY_USER,2456
TRAIN_TIE_DELETE_BY_USER,2671
TRACK_BLOCK_EDIT_BY_USER,5756
TRACK_BLOCK_DELETE_BY_USER,255
LINE_CREATE_BY_USER,1338
ACTIVITY_EDIT_BY_USER,1776
TRAIN_DELETED_BY_USER,501
TRAIN_SCHEDULE_REINSTATED_BY_USER,150
LINE_DELETE_BY_USER,472
TRAIN_SPEED_RESTRICION_CREATE_BY_USER,14
LINE_EDIT_THICKNESS_BY_USER,16
TRACK_CONDITION_LIFT_BY_USER,73
TRAIN_SCHEDULE_SUPPRESS_BY_USER,20
TRAIN_SCHEDULE_SUPPRESS_REVERT_BY_USER,3
TRAIN_SPEED_RESTRICION_EDIT_BY_USER,3
TRAIN_SCHEDULE_TERMINATED_BY_USER,80
LINE_EDIT_COLOR_BY_USER,17
LINE_EDIT_PATTERN_BY_USER,10
CONNECTION_BLOCK_CREATE_BY_USER,8
CONNECTION_BLOCK_EDIT_BY_USER,21
CONNECTION_BLOCK_DELETE_BY_USER,4
TRACK_CONDITION_CREATE_BY_USER,49
TRACK_CONDITION_EDIT_BY_USER,16
TRAIN_SPEED_RESTRICION_DELETE_BY_USER,6
