DATE,n
01-12-18,885
02-12-18,1046
03-12-18,1104
04-12-18,824
05-12-18,949
06-12-18,951
07-12-18,815
08-12-18,672
09-12-18,761
10-12-18,773
11-12-18,911
12-12-18,1055
13-12-18,1073
14-12-18,753
15-12-18,945
16-12-18,460
20-11-18,808
21-11-18,1066
22-11-18,768
23-11-18,938
24-11-18,812
25-11-18,623
26-11-18,1025
27-11-18,874
28-11-18,835
29-11-18,840
30-11-18,886
