TRIGGERPOINT,DATE,n,MEDIAN
TRACK_BLOCK_EDIT_BY_USER,30/11/18,97,184.0
TRACK_BLOCK_EDIT_BY_USER,29/11/18,42,184.0
TRACK_BLOCK_EDIT_BY_USER,28/11/18,13,184.0
TRACK_BLOCK_EDIT_BY_USER,27/11/18,6,184.0
TRACK_BLOCK_EDIT_BY_USER,26/11/18,3,184.0
TRACK_BLOCK_EDIT_BY_USER,25/11/18,10,184.0
TRACK_BLOCK_EDIT_BY_USER,23/11/18,2,184.0
TRACK_BLOCK_EDIT_BY_USER,22/11/18,24,184.0
TRACK_BLOCK_EDIT_BY_USER,21/11/18,47,184.0
TRACK_BLOCK_EDIT_BY_USER,20/11/18,17,184.0
TRACK_BLOCK_EDIT_BY_USER,16/12/18,8,184.0
TRACK_BLOCK_EDIT_BY_USER,15/12/18,51,184.0
TRACK_BLOCK_EDIT_BY_USER,14/12/18,11,184.0
TRACK_BLOCK_EDIT_BY_USER,13/12/18,9,184.0
TRACK_BLOCK_EDIT_BY_USER,12/12/18,12,184.0
TRACK_BLOCK_EDIT_BY_USER,11/12/18,8,184.0
TRACK_BLOCK_EDIT_BY_USER,10/12/18,11,184.0
TRACK_BLOCK_EDIT_BY_USER,09/12/18,6,184.0
TRACK_BLOCK_EDIT_BY_USER,08/12/18,8,184.0
TRACK_BLOCK_EDIT_BY_USER,07/12/18,11,184.0
TRACK_BLOCK_EDIT_BY_USER,06/12/18,6,184.0
TRACK_BLOCK_EDIT_BY_USER,05/12/18,3,184.0
TRACK_BLOCK_EDIT_BY_USER,04/12/18,16,184.0
TRACK_BLOCK_EDIT_BY_USER,03/12/18,24,184.0
TRACK_BLOCK_EDIT_BY_USER,02/12/18,7,184.0
TRACK_BLOCK_EDIT_BY_USER,01/12/18,79,184.0
TRAIN_TIE_CREATE_BY_USER,30/11/18,22,175.0
TRAIN_TIE_CREATE_BY_USER,29/11/18,21,175.0
TRAIN_TIE_CREATE_BY_USER,28/11/18,7,175.0
TRAIN_TIE_CREATE_BY_USER,27/11/18,8,175.0
TRAIN_TIE_CREATE_BY_USER,26/11/18,8,175.0
TRAIN_TIE_CREATE_BY_USER,25/11/18,12,175.0
TRAIN_TIE_CREATE_BY_USER,24/11/18,3,175.0
TRAIN_TIE_CREATE_BY_USER,23/11/18,7,175.0
TRAIN_TIE_CREATE_BY_USER,22/11/18,44,175.0
TRAIN_TIE_CREATE_BY_USER,21/11/18,22,175.0
TRAIN_TIE_CREATE_BY_USER,20/11/18,20,175.0
TRAIN_TIE_CREATE_BY_USER,16/12/18,16,175.0
TRAIN_TIE_CREATE_BY_USER,15/12/18,53,175.0
TRAIN_TIE_CREATE_BY_USER,14/12/18,22,175.0
TRAIN_TIE_CREATE_BY_USER,13/12/18,22,175.0
TRAIN_TIE_CREATE_BY_USER,12/12/18,20,175.0
TRAIN_TIE_CREATE_BY_USER,11/12/18,21,175.0
TRAIN_TIE_CREATE_BY_USER,10/12/18,9,175.0
TRAIN_TIE_CREATE_BY_USER,09/12/18,15,175.0
TRAIN_TIE_CREATE_BY_USER,08/12/18,19,175.0
TRAIN_TIE_CREATE_BY_USER,07/12/18,33,175.0
TRAIN_TIE_CREATE_BY_USER,06/12/18,16,175.0
TRAIN_TIE_CREATE_BY_USER,05/12/18,55,175.0
TRAIN_TIE_CREATE_BY_USER,04/12/18,22,175.0
TRAIN_TIE_CREATE_BY_USER,03/12/18,25,175.0
TRAIN_TIE_CREATE_BY_USER,02/12/18,39,175.0
TRAIN_TIE_CREATE_BY_USER,01/12/18,65,175.0
TRAIN_TIE_DELETE_BY_USER,30/11/18,20,123.0
TRAIN_TIE_DELETE_BY_USER,29/11/18,18,123.0
TRAIN_TIE_DELETE_BY_USER,27/11/18,3,123.0
TRAIN_TIE_DELETE_BY_USER,26/11/18,7,123.0
TRAIN_TIE_DELETE_BY_USER,25/11/18,9,123.0
TRAIN_TIE_DELETE_BY_USER,24/11/18,1,123.0
TRAIN_TIE_DELETE_BY_USER,23/11/18,4,123.0
TRAIN_TIE_DELETE_BY_USER,22/11/18,33,123.0
TRAIN_TIE_DELETE_BY_USER,21/11/18,14,123.0
TRAIN_TIE_DELETE_BY_USER,20/11/18,8,123.0
TRAIN_TIE_DELETE_BY_USER,16/12/18,6,123.0
TRAIN_TIE_DELETE_BY_USER,15/12/18,37,123.0
TRAIN_TIE_DELETE_BY_USER,14/12/18,12,123.0
TRAIN_TIE_DELETE_BY_USER,13/12/18,12,123.0
TRAIN_TIE_DELETE_BY_USER,12/12/18,10,123.0
TRAIN_TIE_DELETE_BY_USER,11/12/18,15,123.0
TRAIN_TIE_DELETE_BY_USER,10/12/18,3,123.0
TRAIN_TIE_DELETE_BY_USER,09/12/18,5,123.0
TRAIN_TIE_DELETE_BY_USER,08/12/18,12,123.0
TRAIN_TIE_DELETE_BY_USER,07/12/18,24,123.0
TRAIN_TIE_DELETE_BY_USER,06/12/18,11,123.0
TRAIN_TIE_DELETE_BY_USER,05/12/18,43,123.0
TRAIN_TIE_DELETE_BY_USER,04/12/18,12,123.0
TRAIN_TIE_DELETE_BY_USER,03/12/18,20,123.0
TRAIN_TIE_DELETE_BY_USER,02/12/18,29,123.0
TRAIN_TIE_DELETE_BY_USER,01/12/18,58,123.0
ACTIVITY_CREATE_BY_USER,30/11/18,15,104.0
ACTIVITY_CREATE_BY_USER,29/11/18,31,104.0
ACTIVITY_CREATE_BY_USER,28/11/18,7,104.0
ACTIVITY_CREATE_BY_USER,27/11/18,14,104.0
ACTIVITY_CREATE_BY_USER,26/11/18,16,104.0
ACTIVITY_CREATE_BY_USER,25/11/18,6,104.0
ACTIVITY_CREATE_BY_USER,24/11/18,18,104.0
ACTIVITY_CREATE_BY_USER,23/11/18,6,104.0
ACTIVITY_CREATE_BY_USER,22/11/18,11,104.0
ACTIVITY_CREATE_BY_USER,21/11/18,9,104.0
ACTIVITY_CREATE_BY_USER,20/11/18,14,104.0
ACTIVITY_CREATE_BY_USER,16/12/18,3,104.0
ACTIVITY_CREATE_BY_USER,15/12/18,14,104.0
ACTIVITY_CREATE_BY_USER,14/12/18,10,104.0
ACTIVITY_CREATE_BY_USER,13/12/18,5,104.0
ACTIVITY_CREATE_BY_USER,12/12/18,29,104.0
ACTIVITY_CREATE_BY_USER,11/12/18,4,104.0
ACTIVITY_CREATE_BY_USER,10/12/18,3,104.0
ACTIVITY_CREATE_BY_USER,09/12/18,7,104.0
ACTIVITY_CREATE_BY_USER,08/12/18,16,104.0
ACTIVITY_CREATE_BY_USER,07/12/18,11,104.0
ACTIVITY_CREATE_BY_USER,06/12/18,18,104.0
ACTIVITY_CREATE_BY_USER,05/12/18,31,104.0
ACTIVITY_CREATE_BY_USER,04/12/18,14,104.0
ACTIVITY_CREATE_BY_USER,03/12/18,31,104.0
ACTIVITY_CREATE_BY_USER,02/12/18,16,104.0
ACTIVITY_CREATE_BY_USER,01/12/18,34,104.0
ACTIVITY_EDIT_BY_USER,30/11/18,7,77.0
ACTIVITY_EDIT_BY_USER,29/11/18,12,77.0
ACTIVITY_EDIT_BY_USER,26/11/18,5,77.0
ACTIVITY_EDIT_BY_USER,25/11/18,5,77.0
ACTIVITY_EDIT_BY_USER,24/11/18,6,77.0
ACTIVITY_EDIT_BY_USER,23/11/18,2,77.0
ACTIVITY_EDIT_BY_USER,22/11/18,5,77.0
ACTIVITY_EDIT_BY_USER,21/11/18,12,77.0
ACTIVITY_EDIT_BY_USER,20/11/18,2,77.0
ACTIVITY_EDIT_BY_USER,15/12/18,7,77.0
ACTIVITY_EDIT_BY_USER,14/12/18,3,77.0
ACTIVITY_EDIT_BY_USER,12/12/18,32,77.0
ACTIVITY_EDIT_BY_USER,09/12/18,7,77.0
ACTIVITY_EDIT_BY_USER,08/12/18,9,77.0
ACTIVITY_EDIT_BY_USER,07/12/18,4,77.0
ACTIVITY_EDIT_BY_USER,06/12/18,4,77.0
ACTIVITY_EDIT_BY_USER,05/12/18,12,77.0
ACTIVITY_EDIT_BY_USER,04/12/18,3,77.0
ACTIVITY_EDIT_BY_USER,03/12/18,10,77.0
ACTIVITY_EDIT_BY_USER,02/12/18,7,77.0
ACTIVITY_EDIT_BY_USER,01/12/18,18,77.0
TRACK_BLOCK_CREATE_BY_USER,30/11/18,22,68.0
TRACK_BLOCK_CREATE_BY_USER,29/11/18,8,68.0
TRACK_BLOCK_CREATE_BY_USER,28/11/18,6,68.0
TRACK_BLOCK_CREATE_BY_USER,27/11/18,1,68.0
TRACK_BLOCK_CREATE_BY_USER,26/11/18,3,68.0
TRACK_BLOCK_CREATE_BY_USER,25/11/18,5,68.0
TRACK_BLOCK_CREATE_BY_USER,23/11/18,2,68.0
TRACK_BLOCK_CREATE_BY_USER,22/11/18,5,68.0
TRACK_BLOCK_CREATE_BY_USER,21/11/18,7,68.0
TRACK_BLOCK_CREATE_BY_USER,20/11/18,4,68.0
TRACK_BLOCK_CREATE_BY_USER,16/12/18,1,68.0
TRACK_BLOCK_CREATE_BY_USER,15/12/18,16,68.0
TRACK_BLOCK_CREATE_BY_USER,14/12/18,6,68.0
TRACK_BLOCK_CREATE_BY_USER,13/12/18,3,68.0
TRACK_BLOCK_CREATE_BY_USER,12/12/18,2,68.0
TRACK_BLOCK_CREATE_BY_USER,11/12/18,5,68.0
TRACK_BLOCK_CREATE_BY_USER,10/12/18,6,68.0
TRACK_BLOCK_CREATE_BY_USER,09/12/18,3,68.0
TRACK_BLOCK_CREATE_BY_USER,08/12/18,3,68.0
TRACK_BLOCK_CREATE_BY_USER,07/12/18,5,68.0
TRACK_BLOCK_CREATE_BY_USER,06/12/18,3,68.0
TRACK_BLOCK_CREATE_BY_USER,05/12/18,1,68.0
TRACK_BLOCK_CREATE_BY_USER,04/12/18,6,68.0
TRACK_BLOCK_CREATE_BY_USER,03/12/18,6,68.0
TRACK_BLOCK_CREATE_BY_USER,02/12/18,2,68.0
TRACK_BLOCK_CREATE_BY_USER,01/12/18,21,68.0
ACTIVITY_DELETE_BY_USER,30/11/18,11,59.0
ACTIVITY_DELETE_BY_USER,29/11/18,20,59.0
ACTIVITY_DELETE_BY_USER,28/11/18,5,59.0
ACTIVITY_DELETE_BY_USER,27/11/18,5,59.0
ACTIVITY_DELETE_BY_USER,26/11/18,12,59.0
ACTIVITY_DELETE_BY_USER,25/11/18,3,59.0
ACTIVITY_DELETE_BY_USER,24/11/18,10,59.0
ACTIVITY_DELETE_BY_USER,23/11/18,4,59.0
ACTIVITY_DELETE_BY_USER,22/11/18,8,59.0
ACTIVITY_DELETE_BY_USER,21/11/18,7,59.0
ACTIVITY_DELETE_BY_USER,20/11/18,9,59.0
ACTIVITY_DELETE_BY_USER,16/12/18,1,59.0
ACTIVITY_DELETE_BY_USER,15/12/18,2,59.0
ACTIVITY_DELETE_BY_USER,14/12/18,3,59.0
ACTIVITY_DELETE_BY_USER,13/12/18,2,59.0
ACTIVITY_DELETE_BY_USER,12/12/18,18,59.0
ACTIVITY_DELETE_BY_USER,11/12/18,2,59.0
ACTIVITY_DELETE_BY_USER,10/12/18,1,59.0
ACTIVITY_DELETE_BY_USER,09/12/18,3,59.0
ACTIVITY_DELETE_BY_USER,08/12/18,11,59.0
ACTIVITY_DELETE_BY_USER,07/12/18,7,59.0
ACTIVITY_DELETE_BY_USER,06/12/18,18,59.0
ACTIVITY_DELETE_BY_USER,05/12/18,21,59.0
ACTIVITY_DELETE_BY_USER,04/12/18,8,59.0
ACTIVITY_DELETE_BY_USER,03/12/18,28,59.0
ACTIVITY_DELETE_BY_USER,02/12/18,8,59.0
ACTIVITY_DELETE_BY_USER,01/12/18,21,59.0
LINE_CREATE_BY_USER,30/11/18,5,56.0
LINE_CREATE_BY_USER,28/11/18,1,56.0
LINE_CREATE_BY_USER,25/11/18,1,56.0
LINE_CREATE_BY_USER,23/11/18,1,56.0
LINE_CREATE_BY_USER,20/11/18,2,56.0
LINE_CREATE_BY_USER,13/12/18,5,56.0
LINE_CREATE_BY_USER,12/12/18,1,56.0
LINE_CREATE_BY_USER,08/12/18,1,56.0
LINE_CREATE_BY_USER,06/12/18,1,56.0
LINE_CREATE_BY_USER,05/12/18,1,56.0
LINE_CREATE_BY_USER,04/12/18,8,56.0
LINE_CREATE_BY_USER,03/12/18,2,56.0
LINE_CREATE_BY_USER,01/12/18,2,56.0
TRAIN_TIE_EDIT_BY_USER,30/11/18,1,31.0
TRAIN_TIE_EDIT_BY_USER,29/11/18,3,31.0
TRAIN_TIE_EDIT_BY_USER,25/11/18,1,31.0
TRAIN_TIE_EDIT_BY_USER,13/12/18,1,31.0
TRAIN_TIE_EDIT_BY_USER,11/12/18,1,31.0
TRAIN_TIE_EDIT_BY_USER,09/12/18,1,31.0
TRAIN_TIE_EDIT_BY_USER,02/12/18,2,31.0
TRAIN_TIE_EDIT_BY_USER,01/12/18,1,31.0
TRAIN_DELETED_BY_USER,30/11/18,2,17.0
TRAIN_DELETED_BY_USER,29/11/18,1,17.0
TRAIN_DELETED_BY_USER,28/11/18,1,17.0
TRAIN_DELETED_BY_USER,27/11/18,3,17.0
TRAIN_DELETED_BY_USER,26/11/18,1,17.0
TRAIN_DELETED_BY_USER,24/11/18,2,17.0
TRAIN_DELETED_BY_USER,23/11/18,3,17.0
TRAIN_DELETED_BY_USER,22/11/18,2,17.0
TRAIN_DELETED_BY_USER,21/11/18,2,17.0
TRAIN_DELETED_BY_USER,20/11/18,2,17.0
TRAIN_DELETED_BY_USER,14/12/18,4,17.0
TRAIN_DELETED_BY_USER,13/12/18,2,17.0
TRAIN_DELETED_BY_USER,12/12/18,2,17.0
TRAIN_DELETED_BY_USER,11/12/18,1,17.0
TRAIN_DELETED_BY_USER,10/12/18,2,17.0
TRAIN_DELETED_BY_USER,09/12/18,5,17.0
TRAIN_DELETED_BY_USER,08/12/18,2,17.0
TRAIN_DELETED_BY_USER,06/12/18,2,17.0
TRAIN_DELETED_BY_USER,05/12/18,2,17.0
TRAIN_DELETED_BY_USER,04/12/18,1,17.0
TRAIN_DELETED_BY_USER,02/12/18,3,17.0
LINE_DELETE_BY_USER,30/11/18,2,15.0
LINE_DELETE_BY_USER,13/12/18,2,15.0
LINE_DELETE_BY_USER,04/12/18,3,15.0
LINE_DELETE_BY_USER,01/12/18,1,15.0
TRACK_BLOCK_DELETE_BY_USER,30/11/18,1,13.0
TRACK_BLOCK_DELETE_BY_USER,29/11/18,2,13.0
TRACK_BLOCK_DELETE_BY_USER,25/11/18,1,13.0
TRACK_BLOCK_DELETE_BY_USER,24/11/18,1,13.0
TRACK_BLOCK_DELETE_BY_USER,23/11/18,1,13.0
TRACK_BLOCK_DELETE_BY_USER,22/11/18,3,13.0
TRACK_BLOCK_DELETE_BY_USER,21/11/18,2,13.0
TRACK_BLOCK_DELETE_BY_USER,20/11/18,12,13.0
TRACK_BLOCK_DELETE_BY_USER,15/12/18,1,13.0
TRACK_BLOCK_DELETE_BY_USER,12/12/18,1,13.0
TRACK_BLOCK_DELETE_BY_USER,11/12/18,1,13.0
TRACK_BLOCK_DELETE_BY_USER,06/12/18,1,13.0
TRACK_BLOCK_DELETE_BY_USER,05/12/18,1,13.0
TRACK_BLOCK_DELETE_BY_USER,03/12/18,5,13.0
TRACK_BLOCK_DELETE_BY_USER,02/12/18,1,13.0
TRACK_BLOCK_DELETE_BY_USER,01/12/18,8,13.0
TRAIN_SCHEDULE_REINSTATED_BY_USER,29/11/18,1,9.0
TRAIN_SCHEDULE_REINSTATED_BY_USER,28/11/18,1,9.0
TRAIN_SCHEDULE_REINSTATED_BY_USER,27/11/18,1,9.0
TRAIN_SCHEDULE_REINSTATED_BY_USER,26/11/18,1,9.0
TRAIN_SCHEDULE_REINSTATED_BY_USER,24/11/18,1,9.0
TRAIN_SCHEDULE_REINSTATED_BY_USER,15/12/18,1,9.0
TRAIN_SCHEDULE_REINSTATED_BY_USER,14/12/18,1,9.0
TRAIN_SCHEDULE_REINSTATED_BY_USER,13/12/18,1,9.0
TRAIN_SCHEDULE_REINSTATED_BY_USER,12/12/18,2,9.0
TRAIN_SCHEDULE_REINSTATED_BY_USER,08/12/18,2,9.0
TRAIN_SCHEDULE_REINSTATED_BY_USER,06/12/18,1,9.0
TRAIN_SCHEDULE_REINSTATED_BY_USER,04/12/18,1,9.0
TRAIN_SCHEDULE_REINSTATED_BY_USER,02/12/18,1,9.0
TRAIN_SCHEDULE_TERMINATED_BY_USER,29/11/18,1,2.0
TRAIN_SCHEDULE_TERMINATED_BY_USER,27/11/18,1,2.0
TRAIN_SCHEDULE_TERMINATED_BY_USER,21/11/18,1,2.0
TRAIN_SCHEDULE_TERMINATED_BY_USER,15/12/18,1,2.0
TRAIN_SCHEDULE_TERMINATED_BY_USER,13/12/18,1,2.0
TRAIN_SCHEDULE_TERMINATED_BY_USER,04/12/18,1,2.0
TRAIN_SPEED_RESTRICION_CREATE_BY_USER,27/11/18,1,2.0
