TRAIN_ID,DIRECTION,TRANSIT_TIME
827,from_port_to_mine,0.6655555555555556
1005,from_port_to_mine,3.835277777777778
809,from_port_to_mine,0.03388888888888889
149,from_port_to_mine,2.390833333333333
1252,from_port_to_mine,1.051388888888889
732,from_port_to_mine,0.8030555555555555
543,from_port_to_mine,0.0
533,from_port_to_mine,0.4736111111111111
360,from_port_to_mine,0.28305555555555556
511,from_port_to_mine,2.8658333333333332
529,from_port_to_mine,3.2625
821,from_port_to_mine,1.6325
2,from_port_to_mine,3.1927777777777777
6,from_port_to_mine,9.815555555555555
10,from_port_to_mine,24.64138888888889
16,from_port_to_mine,24.671388888888888
20,from_port_to_mine,10.223611111111111
26,from_port_to_mine,6.63
32,from_port_to_mine,6.7941666666666665
36,from_port_to_mine,7.297777777777778
40,from_port_to_mine,7.2972222222222225
42,from_port_to_mine,17.796388888888888
48,from_port_to_mine,21.595555555555556
52,from_port_to_mine,21.66722222222222
58,from_port_to_mine,23.345555555555556
62,from_port_to_mine,12.806111111111111
68,from_port_to_mine,5.647222222222222
72,from_port_to_mine,20.26861111111111
74,from_port_to_mine,8.295555555555556
80,from_port_to_mine,20.810277777777777
86,from_port_to_mine,7.329444444444444
90,from_port_to_mine,11.815555555555555
96,from_port_to_mine,8.877222222222223
100,from_port_to_mine,23.672777777777778
106,from_port_to_mine,27.115555555555556
376,from_port_to_mine,6.171111111111111
382,from_port_to_mine,8.356111111111112
403,from_port_to_mine,8.47638888888889
449,from_port_to_mine,22.483888888888888
459,from_port_to_mine,26.97138888888889
472,from_port_to_mine,8.667777777777777
479,from_port_to_mine,23.639166666666668
488,from_port_to_mine,9.045833333333333
507,from_port_to_mine,23.040277777777778
530,from_port_to_mine,8.471944444444444
539,from_port_to_mine,22.421666666666667
568,from_port_to_mine,11.54264888888889
590,from_port_to_mine,18.635833333333334
599,from_port_to_mine,7.838888888888889
621,from_port_to_mine,11.806944444444444
635,from_port_to_mine,22.464444444444446
648,from_port_to_mine,7.545555555555556
656,from_port_to_mine,23.376666666666665
706,from_port_to_mine,7.992222222222222
764,from_port_to_mine,9.781944444444445
773,from_port_to_mine,20.29083333333333
779,from_port_to_mine,20.814166666666665
783,from_port_to_mine,6.455277777777778
793,from_port_to_mine,21.828611111111112
832,from_port_to_mine,9.75611111111111
841,from_port_to_mine,7.0875
853,from_port_to_mine,10.788333333333334
887,from_port_to_mine,10.510373333333334
987,from_port_to_mine,9.562087777777778
1011,from_port_to_mine,9.926364444444445
1244,from_port_to_mine,9.130695277777777
1265,from_port_to_mine,4.988428333333333
1283,from_port_to_mine,3.131435
371,from_port_to_mine,2.3938888888888887
3,from_mine_to_port,10.345555555555556
7,from_mine_to_port,6.011388888888889
11,from_mine_to_port,18.906111111111112
17,from_mine_to_port,5.561111111111111
21,from_mine_to_port,8.911666666666667
27,from_mine_to_port,8.873888888888889
33,from_mine_to_port,9.74
37,from_mine_to_port,10.031944444444445
41,from_mine_to_port,6.415277777777778
49,from_mine_to_port,9.164722222222222
53,from_mine_to_port,7.314166666666667
59,from_mine_to_port,8.634444444444444
63,from_mine_to_port,8.790277777777778
73,from_mine_to_port,8.546388888888888
75,from_mine_to_port,10.003333333333334
81,from_mine_to_port,9.696666666666667
87,from_mine_to_port,14.575833333333334
91,from_mine_to_port,8.621944444444445
97,from_mine_to_port,5.692222222222222
101,from_mine_to_port,7.5344444444444445
107,from_mine_to_port,11.713611111111112
377,from_mine_to_port,6.97
383,from_mine_to_port,12.73
404,from_mine_to_port,17.863611111111112
450,from_mine_to_port,8.502777777777778
460,from_mine_to_port,14.856944444444444
473,from_mine_to_port,10.659722222222221
480,from_mine_to_port,13.468333333333334
489,from_mine_to_port,12.93138888888889
508,from_mine_to_port,10.676111111111112
531,from_mine_to_port,10.705555555555556
540,from_mine_to_port,9.195833333333333
569,from_mine_to_port,10.316944444444445
591,from_mine_to_port,6.3805555555555555
600,from_mine_to_port,6.666388888888889
622,from_mine_to_port,7.055
636,from_mine_to_port,10.554444444444444
649,from_mine_to_port,10.009722222222223
657,from_mine_to_port,10.675555555555556
707,from_mine_to_port,10.037777777777778
765,from_mine_to_port,9.031944444444445
774,from_mine_to_port,14.198888888888888
780,from_mine_to_port,5.625
784,from_mine_to_port,9.480555555555556
794,from_mine_to_port,9.224444444444444
833,from_mine_to_port,11.404722222222222
842,from_mine_to_port,11.307083055555555
854,from_mine_to_port,12.259729444444444
888,from_mine_to_port,12.760673333333333
988,from_mine_to_port,15.57818638888889
1012,from_mine_to_port,13.371584166666667
1245,from_mine_to_port,7.221584166666666
1266,from_mine_to_port,5.0109747222222225
1284,from_mine_to_port,3.176724722222222
421,from_port_to_mine,7.471111111111111
502,from_port_to_mine,0.0
187,from_port_to_mine,0.0
504,from_port_to_mine,5.369722222222222
188,from_port_to_mine,0.26055555555555554
348,from_port_to_mine,2.773888888888889
513,from_port_to_mine,0.0
598,from_port_to_mine,7.134722222222222
759,from_port_to_mine,0.0
193,from_port_to_mine,3.5366666666666666
420,from_port_to_mine,0.2594444444444444
189,from_port_to_mine,0.0
709,from_port_to_mine,0.0
269,from_port_to_mine,1.5019444444444445
406,from_mine_to_port,0.0
863,from_mine_to_port,0.06944444444444445
870,from_mine_to_port,0.03333333333333333
901,from_mine_to_port,0.0
207,from_mine_to_port,8.9825
227,from_mine_to_port,13.456666666666667
209,from_port_to_mine,0.3827777777777778
210,from_port_to_mine,4.9158333333333335
211,from_port_to_mine,0.0
293,from_port_to_mine,11.373333333333333
516,from_port_to_mine,4.5488888888888885
525,from_port_to_mine,7.306666666666667
221,from_port_to_mine,0.9852777777777778
222,from_port_to_mine,0.0
564,from_port_to_mine,1.446388888888889
228,from_port_to_mine,0.1461111111111111
689,from_port_to_mine,0.2536111111111111
872,from_port_to_mine,0.2633333333333333
368,from_port_to_mine,0.3466666666666667
111,from_port_to_mine,0.7977777777777778
116,from_port_to_mine,1.2030555555555555
544,from_port_to_mine,10.920277777777779
123,from_port_to_mine,3.526388888888889
124,from_port_to_mine,0.0
439,from_port_to_mine,0.0
195,from_mine_to_port,13.625555555555556
126,from_port_to_mine,0.0
127,from_port_to_mine,0.0
128,from_port_to_mine,0.0
133,from_port_to_mine,0.0
134,from_port_to_mine,7.216388888888889
152,from_port_to_mine,0.0
155,from_port_to_mine,8.340277777777779
183,from_port_to_mine,6.226111111111111
251,from_port_to_mine,0.0
902,from_mine_to_port,0.0
129,from_mine_to_port,12.634444444444444
130,from_mine_to_port,0.0
205,from_mine_to_port,1.0811111111111111
710,from_port_to_mine,0.0
